…
    ## Warning in mean.default("Very Good"): argument is not numeric or logical:
    ## returning NA

    ## Warning in mean.default("Very Good"): argument is not numeric or logical:
    ## returning NA

    ## Warning in mean.default("Very Good"): argument is not numeric or logical:
    ## returning NA

``` r
brfss_proportions
```

    ## # A tibble: 51 x 8
    ## # Groups:   year_factor [1]
    ##    year_factor state brfss_excellent~ brfss_verygoodm~ brfss_goodmean
    ##    <fct>       <chr>            <dbl>            <dbl>          <dbl>
    ##  1 year        AK                  NA               NA           23.6
    ##  2 year        AL                  NA               NA           18.6
    ##  3 year        AR                  NA               NA           21.9
    ##  4 year        AZ                  NA               NA           21.4
    ##  5 year        CA                  NA               NA           23.3
    ##  6 year        CO                  NA               NA           24.4
    ##  7 year        CT                  NA               NA           26.4
    ##  8 year        DC                  NA               NA           27.4
    ##  9 year        DE                  NA               NA           20.0
    ## 10 year        FL                  NA               NA           NA  
    ## # ... with 41 more rows, and 3 more variables: brfss_fairmean <dbl>,
    ## #   brfss_poormean <dbl>, response_proportions <fct>
…
